Em3d|-n 2 -d 2 -i 1|442|144|95|3,8122432|0,2478466|0,359349|13|854||
Em3d|-n 2 -d 2 -i 1|443|145|76|3,8122432|0,2478466|0,3749789|13|855||
Em3d|-n 2 -d 2 -i 1|444|146|75|3,8122432|0,2478466|0,3749789|13|856||
Em3d|-n 2 -d 2 -i 1|445|147|66|3,8122432|0,2478466|0,3906025|13|857||
Em3d|-n 2 -d 2 -i 1|446|148|64|3,8122432|0,2478466|0,3906025|13|858||
