Window,Lines Deleted,Compilations,Executions,Cachced Compilations,Cached Executions,Re-run Fail(1),Re-run Fail(2),Re-run Fail(3),Re-run Fail(4)
1,10,629,14,548,559,0,0,0,0
2,4,617,11,539,545,0,0,0,0
3,9,608,5,529,536,0,0,0,0
4,20,600,8,520,526,0,0,0,0
5,10,596,4,507,511,0,0,0,0
6,6,588,6,496,498,0,0,0,0
7,7,580,4,486,489,0,0,0,0
8,72,577,7,470,473,0,0,0,0
Total:,138,4795,59,4095,4137,0,0,0,0

