BH.cs:39
BH.cs:40
BH.cs:42
BH.cs:44
BH.cs:51
BH.cs:57
BH.cs:58
BH.cs:59
BH.cs:61
BH.cs:62
BH.cs:84
BH.cs:126
BH.cs:129
BH.cs:131
BH.cs:134
BH.cs:136
BH.cs:138
BH.cs:145
BH.cs:147
BH.cs:149
Body.cs:13
Body.cs:14
Body.cs:19
Body.cs:25
Body.cs:26
Body.cs:33
Body.cs:35
Body.cs:44
Body.cs:51
Body.cs:53
Body.cs:62
BTree.cs:63
BTree.cs:75
BTree.cs:77
BTree.cs:78
BTree.cs:126
BTree.cs:128
BTree.cs:133
BTree.cs:135
BTree.cs:136
BTree.cs:140
BTree.cs:141
BTree.cs:142
BTree.cs:146
BTree.cs:168
BTree.cs:222
BTree.cs:228
BTree.cs:229
BTree.cs:247
BTree.cs:250
MathVector.cs:37
MathVector.cs:41
Node.cs:15
Node.cs:29
---------------------
BH.cs:39
BH.cs:40
BH.cs:42
BH.cs:44
BH.cs:50
BH.cs:51
BH.cs:57
BH.cs:58
BH.cs:59
BH.cs:61
BH.cs:62
BH.cs:85
BH.cs:98
BH.cs:100
BH.cs:102
BH.cs:103
BH.cs:114
BH.cs:116
BH.cs:117
BH.cs:126
BH.cs:129
BH.cs:131
BH.cs:134
BH.cs:136
BH.cs:138
BH.cs:145
BH.cs:147
BH.cs:149
Body.cs:13
Body.cs:14
Body.cs:19
Body.cs:21
Body.cs:22
Body.cs:23
Body.cs:25
Body.cs:26
Body.cs:33
Body.cs:35
Body.cs:44
Body.cs:51
Body.cs:53
Body.cs:62
Body.cs:72
Body.cs:74
Body.cs:75
Body.cs:77
Body.cs:78
Body.cs:80
Body.cs:82
Body.cs:84
Body.cs:85
Body.cs:88
Body.cs:89
Body.cs:91
Body.cs:94
Body.cs:95
Body.cs:96
Body.cs:97
Body.cs:110
Body.cs:111
Body.cs:120
Body.cs:121
Body.cs:122
Body.cs:124
Body.cs:125
Body.cs:126
Body.cs:128
Body.cs:140
Body.cs:143
Body.cs:144
Body.cs:146
Body.cs:149
Body.cs:150
Body.cs:151
Body.cs:152
Body.cs:154
Body.cs:155
Body.cs:164
Body.cs:172
Body.cs:174
Body.cs:176
Body.cs:177
Body.cs:179
Body.cs:180
Body.cs:182
Body.cs:183
Body.cs:185
Body.cs:186
Body.cs:188
Body.cs:189
Body.cs:191
Body.cs:199
Body.cs:203
Body.cs:204
Body.cs:212
Body.cs:214
Body.cs:215
BTree.cs:30
BTree.cs:31
BTree.cs:36
BTree.cs:37
BTree.cs:38
BTree.cs:63
BTree.cs:65
BTree.cs:66
BTree.cs:68
BTree.cs:71
BTree.cs:72
BTree.cs:73
BTree.cs:75
BTree.cs:77
BTree.cs:78
BTree.cs:80
BTree.cs:82
BTree.cs:87
BTree.cs:88
BTree.cs:90
BTree.cs:91
BTree.cs:92
BTree.cs:95
BTree.cs:99
BTree.cs:101
BTree.cs:102
BTree.cs:103
BTree.cs:104
BTree.cs:105
BTree.cs:107
BTree.cs:109
BTree.cs:111
BTree.cs:113
BTree.cs:115
BTree.cs:116
BTree.cs:118
BTree.cs:119
BTree.cs:120
BTree.cs:121
BTree.cs:122
BTree.cs:126
BTree.cs:128
BTree.cs:130
BTree.cs:131
BTree.cs:133
BTree.cs:135
BTree.cs:136
BTree.cs:138
BTree.cs:139
BTree.cs:140
BTree.cs:141
BTree.cs:142
BTree.cs:146
BTree.cs:153
BTree.cs:156
BTree.cs:158
BTree.cs:161
BTree.cs:162
BTree.cs:164
BTree.cs:165
BTree.cs:168
BTree.cs:177
BTree.cs:178
BTree.cs:180
BTree.cs:182
BTree.cs:183
BTree.cs:184
BTree.cs:185
BTree.cs:187
BTree.cs:189
BTree.cs:191
BTree.cs:200
BTree.cs:202
BTree.cs:203
BTree.cs:204
BTree.cs:208
BTree.cs:209
BTree.cs:210
BTree.cs:214
BTree.cs:215
BTree.cs:216
BTree.cs:222
BTree.cs:224
BTree.cs:225
BTree.cs:226
BTree.cs:228
BTree.cs:229
BTree.cs:231
BTree.cs:232
BTree.cs:234
BTree.cs:235
BTree.cs:236
BTree.cs:237
BTree.cs:239
BTree.cs:240
BTree.cs:242
BTree.cs:243
BTree.cs:244
BTree.cs:245
BTree.cs:246
BTree.cs:247
BTree.cs:248
BTree.cs:249
BTree.cs:250
Cell.cs:9
Cell.cs:18
Cell.cs:20
Cell.cs:33
Cell.cs:36
Cell.cs:37
Cell.cs:38
Cell.cs:39
Cell.cs:41
Cell.cs:42
Cell.cs:51
Cell.cs:52
Cell.cs:53
Cell.cs:54
Cell.cs:56
Cell.cs:57
Cell.cs:59
Cell.cs:60
Cell.cs:61
Cell.cs:62
Cell.cs:65
Cell.cs:67
Cell.cs:69
Cell.cs:75
Cell.cs:77
Cell.cs:79
Cell.cs:81
Cell.cs:82
Cell.cs:83
Cell.cs:87
Cell.cs:95
Cell.cs:97
Cell.cs:98
Cell.cs:99
Cell.cs:102
HG.cs:29
HG.cs:31
HG.cs:32
HG.cs:34
MathVector.cs:13
MathVector.cs:24
MathVector.cs:25
MathVector.cs:26
MathVector.cs:37
MathVector.cs:38
MathVector.cs:39
MathVector.cs:40
MathVector.cs:54
MathVector.cs:56
MathVector.cs:64
MathVector.cs:66
MathVector.cs:88
MathVector.cs:89
MathVector.cs:99
MathVector.cs:100
MathVector.cs:110
MathVector.cs:111
MathVector.cs:118
MathVector.cs:120
MathVector.cs:121
MathVector.cs:129
MathVector.cs:131
MathVector.cs:132
MathVector.cs:139
MathVector.cs:141
MathVector.cs:142
MathVector.cs:151
MathVector.cs:152
MathVector.cs:153
MathVector.cs:154
MathVector.cs:210
MathVector.cs:212
MathVector.cs:213
Node.cs:11
Node.cs:18
Node.cs:21
Node.cs:28
Node.cs:29
Node.cs:36
Node.cs:38
Node.cs:39
Node.cs:41
Node.cs:42
Node.cs:44
Node.cs:61
Node.cs:62
Node.cs:64
Node.cs:65
Node.cs:67
Node.cs:69
Node.cs:70
Node.cs:71
---------------------
BH.cs:39
BH.cs:40
BH.cs:42
BH.cs:44
BH.cs:51
BH.cs:57
BH.cs:58
BH.cs:59
BH.cs:61
BH.cs:62
BH.cs:86
BH.cs:126
BH.cs:129
BH.cs:131
BH.cs:134
BH.cs:136
BH.cs:138
BH.cs:145
BH.cs:147
BH.cs:149
Body.cs:8
Body.cs:13
Body.cs:14
Body.cs:21
Body.cs:25
Body.cs:26
Body.cs:33
Body.cs:35
Body.cs:44
Body.cs:51
Body.cs:53
Body.cs:62
BTree.cs:63
BTree.cs:75
BTree.cs:77
BTree.cs:78
BTree.cs:126
BTree.cs:128
BTree.cs:133
BTree.cs:135
BTree.cs:136
BTree.cs:140
BTree.cs:141
BTree.cs:142
BTree.cs:146
BTree.cs:153
BTree.cs:168
BTree.cs:222
BTree.cs:228
BTree.cs:229
BTree.cs:232
BTree.cs:237
BTree.cs:249
BTree.cs:250
MathVector.cs:37
MathVector.cs:41
---------------------
BH.cs:39
BH.cs:40
BH.cs:42
BH.cs:44
BH.cs:50
BH.cs:51
BH.cs:57
BH.cs:58
BH.cs:59
BH.cs:61
BH.cs:62
BH.cs:87
BH.cs:98
BH.cs:100
BH.cs:102
BH.cs:103
BH.cs:114
BH.cs:116
BH.cs:117
BH.cs:126
BH.cs:129
BH.cs:131
BH.cs:134
BH.cs:136
BH.cs:138
BH.cs:145
BH.cs:147
BH.cs:149
Body.cs:13
Body.cs:14
Body.cs:19
Body.cs:21
Body.cs:22
Body.cs:23
Body.cs:25
Body.cs:26
Body.cs:33
Body.cs:35
Body.cs:44
Body.cs:51
Body.cs:53
Body.cs:62
Body.cs:72
Body.cs:74
Body.cs:75
Body.cs:77
Body.cs:78
Body.cs:80
Body.cs:82
Body.cs:84
Body.cs:85
Body.cs:88
Body.cs:89
Body.cs:91
Body.cs:94
Body.cs:95
Body.cs:96
Body.cs:97
Body.cs:110
Body.cs:111
Body.cs:120
Body.cs:121
Body.cs:122
Body.cs:124
Body.cs:125
Body.cs:126
Body.cs:128
Body.cs:140
Body.cs:143
Body.cs:144
Body.cs:146
Body.cs:149
Body.cs:150
Body.cs:151
Body.cs:152
Body.cs:154
Body.cs:155
Body.cs:164
Body.cs:172
Body.cs:174
Body.cs:176
Body.cs:177
Body.cs:179
Body.cs:180
Body.cs:182
Body.cs:183
Body.cs:185
Body.cs:186
Body.cs:188
Body.cs:189
Body.cs:191
Body.cs:199
Body.cs:203
Body.cs:204
Body.cs:212
Body.cs:214
Body.cs:215
BTree.cs:30
BTree.cs:31
BTree.cs:36
BTree.cs:37
BTree.cs:38
BTree.cs:63
BTree.cs:65
BTree.cs:66
BTree.cs:68
BTree.cs:71
BTree.cs:72
BTree.cs:73
BTree.cs:75
BTree.cs:77
BTree.cs:78
BTree.cs:80
BTree.cs:82
BTree.cs:87
BTree.cs:88
BTree.cs:90
BTree.cs:91
BTree.cs:92
BTree.cs:95
BTree.cs:99
BTree.cs:101
BTree.cs:102
BTree.cs:103
BTree.cs:104
BTree.cs:105
BTree.cs:107
BTree.cs:109
BTree.cs:111
BTree.cs:113
BTree.cs:115
BTree.cs:116
BTree.cs:118
BTree.cs:119
BTree.cs:120
BTree.cs:121
BTree.cs:122
BTree.cs:126
BTree.cs:128
BTree.cs:130
BTree.cs:131
BTree.cs:133
BTree.cs:135
BTree.cs:136
BTree.cs:138
BTree.cs:139
BTree.cs:140
BTree.cs:141
BTree.cs:142
BTree.cs:146
BTree.cs:153
BTree.cs:156
BTree.cs:158
BTree.cs:161
BTree.cs:162
BTree.cs:164
BTree.cs:165
BTree.cs:168
BTree.cs:177
BTree.cs:178
BTree.cs:180
BTree.cs:182
BTree.cs:183
BTree.cs:184
BTree.cs:185
BTree.cs:187
BTree.cs:189
BTree.cs:191
BTree.cs:200
BTree.cs:202
BTree.cs:203
BTree.cs:204
BTree.cs:208
BTree.cs:209
BTree.cs:210
BTree.cs:214
BTree.cs:215
BTree.cs:216
BTree.cs:222
BTree.cs:224
BTree.cs:225
BTree.cs:226
BTree.cs:228
BTree.cs:229
BTree.cs:231
BTree.cs:232
BTree.cs:234
BTree.cs:235
BTree.cs:236
BTree.cs:237
BTree.cs:239
BTree.cs:240
BTree.cs:242
BTree.cs:243
BTree.cs:244
BTree.cs:245
BTree.cs:246
BTree.cs:247
BTree.cs:248
BTree.cs:249
BTree.cs:250
Cell.cs:9
Cell.cs:18
Cell.cs:20
Cell.cs:33
Cell.cs:36
Cell.cs:37
Cell.cs:38
Cell.cs:39
Cell.cs:41
Cell.cs:42
Cell.cs:51
Cell.cs:52
Cell.cs:53
Cell.cs:54
Cell.cs:56
Cell.cs:57
Cell.cs:59
Cell.cs:60
Cell.cs:61
Cell.cs:62
Cell.cs:65
Cell.cs:67
Cell.cs:69
Cell.cs:75
Cell.cs:77
Cell.cs:79
Cell.cs:81
Cell.cs:82
Cell.cs:83
Cell.cs:87
Cell.cs:95
Cell.cs:97
Cell.cs:98
Cell.cs:99
Cell.cs:102
HG.cs:29
HG.cs:31
HG.cs:32
HG.cs:34
MathVector.cs:13
MathVector.cs:24
MathVector.cs:25
MathVector.cs:26
MathVector.cs:37
MathVector.cs:38
MathVector.cs:39
MathVector.cs:40
MathVector.cs:54
MathVector.cs:56
MathVector.cs:64
MathVector.cs:66
MathVector.cs:88
MathVector.cs:89
MathVector.cs:99
MathVector.cs:100
MathVector.cs:110
MathVector.cs:111
MathVector.cs:118
MathVector.cs:120
MathVector.cs:121
MathVector.cs:129
MathVector.cs:131
MathVector.cs:132
MathVector.cs:139
MathVector.cs:141
MathVector.cs:142
MathVector.cs:151
MathVector.cs:152
MathVector.cs:153
MathVector.cs:154
MathVector.cs:210
MathVector.cs:212
MathVector.cs:213
Node.cs:11
Node.cs:18
Node.cs:21
Node.cs:28
Node.cs:29
Node.cs:36
Node.cs:38
Node.cs:39
Node.cs:41
Node.cs:42
Node.cs:44
Node.cs:61
Node.cs:62
Node.cs:64
Node.cs:65
Node.cs:67
Node.cs:69
Node.cs:70
Node.cs:71
---------------------
BH.cs:39
BH.cs:40
BH.cs:42
BH.cs:44
BH.cs:51
BH.cs:57
BH.cs:58
BH.cs:59
BH.cs:61
BH.cs:62
BH.cs:88
BH.cs:126
BH.cs:129
BH.cs:131
BH.cs:134
BH.cs:136
BH.cs:138
BH.cs:145
BH.cs:147
BH.cs:149
Body.cs:9
Body.cs:13
Body.cs:14
Body.cs:22
Body.cs:25
Body.cs:26
Body.cs:33
Body.cs:35
Body.cs:44
Body.cs:51
Body.cs:53
Body.cs:62
BTree.cs:63
BTree.cs:75
BTree.cs:77
BTree.cs:78
BTree.cs:126
BTree.cs:128
BTree.cs:133
BTree.cs:135
BTree.cs:136
BTree.cs:140
BTree.cs:141
BTree.cs:142
BTree.cs:146
BTree.cs:168
BTree.cs:222
BTree.cs:228
BTree.cs:229
BTree.cs:239
BTree.cs:250
MathVector.cs:37
MathVector.cs:41
---------------------
BH.cs:39
BH.cs:40
BH.cs:42
BH.cs:44
BH.cs:50
BH.cs:51
BH.cs:57
BH.cs:58
BH.cs:59
BH.cs:61
BH.cs:62
BH.cs:89
BH.cs:98
BH.cs:100
BH.cs:102
BH.cs:103
BH.cs:114
BH.cs:116
BH.cs:117
BH.cs:126
BH.cs:129
BH.cs:131
BH.cs:134
BH.cs:136
BH.cs:138
BH.cs:145
BH.cs:147
BH.cs:149
Body.cs:13
Body.cs:14
Body.cs:19
Body.cs:21
Body.cs:22
Body.cs:23
Body.cs:25
Body.cs:26
Body.cs:33
Body.cs:35
Body.cs:44
Body.cs:51
Body.cs:53
Body.cs:62
Body.cs:72
Body.cs:74
Body.cs:75
Body.cs:77
Body.cs:78
Body.cs:80
Body.cs:82
Body.cs:84
Body.cs:85
Body.cs:88
Body.cs:89
Body.cs:91
Body.cs:94
Body.cs:95
Body.cs:96
Body.cs:97
Body.cs:110
Body.cs:111
Body.cs:120
Body.cs:121
Body.cs:122
Body.cs:124
Body.cs:125
Body.cs:126
Body.cs:128
Body.cs:140
Body.cs:143
Body.cs:144
Body.cs:146
Body.cs:149
Body.cs:150
Body.cs:151
Body.cs:152
Body.cs:154
Body.cs:155
Body.cs:164
Body.cs:172
Body.cs:174
Body.cs:176
Body.cs:177
Body.cs:179
Body.cs:180
Body.cs:182
Body.cs:183
Body.cs:185
Body.cs:186
Body.cs:188
Body.cs:189
Body.cs:191
Body.cs:199
Body.cs:203
Body.cs:204
Body.cs:212
Body.cs:214
Body.cs:215
BTree.cs:30
BTree.cs:31
BTree.cs:36
BTree.cs:37
BTree.cs:38
BTree.cs:63
BTree.cs:65
BTree.cs:66
BTree.cs:68
BTree.cs:71
BTree.cs:72
BTree.cs:73
BTree.cs:75
BTree.cs:77
BTree.cs:78
BTree.cs:80
BTree.cs:82
BTree.cs:87
BTree.cs:88
BTree.cs:90
BTree.cs:91
BTree.cs:92
BTree.cs:95
BTree.cs:99
BTree.cs:101
BTree.cs:102
BTree.cs:103
BTree.cs:104
BTree.cs:105
BTree.cs:107
BTree.cs:109
BTree.cs:111
BTree.cs:113
BTree.cs:115
BTree.cs:116
BTree.cs:118
BTree.cs:119
BTree.cs:120
BTree.cs:121
BTree.cs:122
BTree.cs:126
BTree.cs:128
BTree.cs:130
BTree.cs:131
BTree.cs:133
BTree.cs:135
BTree.cs:136
BTree.cs:138
BTree.cs:139
BTree.cs:140
BTree.cs:141
BTree.cs:142
BTree.cs:146
BTree.cs:153
BTree.cs:156
BTree.cs:158
BTree.cs:161
BTree.cs:162
BTree.cs:164
BTree.cs:165
BTree.cs:168
BTree.cs:177
BTree.cs:178
BTree.cs:180
BTree.cs:182
BTree.cs:183
BTree.cs:184
BTree.cs:185
BTree.cs:187
BTree.cs:189
BTree.cs:191
BTree.cs:200
BTree.cs:202
BTree.cs:203
BTree.cs:204
BTree.cs:208
BTree.cs:209
BTree.cs:210
BTree.cs:214
BTree.cs:215
BTree.cs:216
BTree.cs:222
BTree.cs:224
BTree.cs:225
BTree.cs:226
BTree.cs:228
BTree.cs:229
BTree.cs:231
BTree.cs:232
BTree.cs:234
BTree.cs:235
BTree.cs:236
BTree.cs:237
BTree.cs:239
BTree.cs:240
BTree.cs:242
BTree.cs:243
BTree.cs:244
BTree.cs:245
BTree.cs:246
BTree.cs:247
BTree.cs:248
BTree.cs:249
BTree.cs:250
Cell.cs:9
Cell.cs:18
Cell.cs:20
Cell.cs:33
Cell.cs:36
Cell.cs:37
Cell.cs:38
Cell.cs:39
Cell.cs:41
Cell.cs:42
Cell.cs:51
Cell.cs:52
Cell.cs:53
Cell.cs:54
Cell.cs:56
Cell.cs:57
Cell.cs:59
Cell.cs:60
Cell.cs:61
Cell.cs:62
Cell.cs:65
Cell.cs:67
Cell.cs:69
Cell.cs:75
Cell.cs:77
Cell.cs:79
Cell.cs:81
Cell.cs:82
Cell.cs:83
Cell.cs:87
Cell.cs:95
Cell.cs:97
Cell.cs:98
Cell.cs:99
Cell.cs:102
HG.cs:29
HG.cs:31
HG.cs:32
HG.cs:34
MathVector.cs:13
MathVector.cs:24
MathVector.cs:25
MathVector.cs:26
MathVector.cs:37
MathVector.cs:38
MathVector.cs:39
MathVector.cs:40
MathVector.cs:54
MathVector.cs:56
MathVector.cs:64
MathVector.cs:66
MathVector.cs:88
MathVector.cs:89
MathVector.cs:99
MathVector.cs:100
MathVector.cs:110
MathVector.cs:111
MathVector.cs:118
MathVector.cs:120
MathVector.cs:121
MathVector.cs:129
MathVector.cs:131
MathVector.cs:132
MathVector.cs:139
MathVector.cs:141
MathVector.cs:142
MathVector.cs:151
MathVector.cs:152
MathVector.cs:153
MathVector.cs:154
MathVector.cs:210
MathVector.cs:212
MathVector.cs:213
Node.cs:11
Node.cs:18
Node.cs:21
Node.cs:28
Node.cs:29
Node.cs:36
Node.cs:38
Node.cs:39
Node.cs:41
Node.cs:42
Node.cs:44
Node.cs:61
Node.cs:62
Node.cs:64
Node.cs:65
Node.cs:67
Node.cs:69
Node.cs:70
Node.cs:71
---------------------
