DatabaseHelper.java:13
DatabaseHelper.java:15
DatabaseHelper.java:17
JPA.java:7
MainJPA.java:15
MainJPA.java:43
MainJPA.java:65
Persistence.java:47
Persistence.java:61
Persistence.java:62
Persistence.java:63
Persistence.java:64
Persistence.java:71
Persistence.java:75
PersistenceProviderResolverHolder.java:54
PersistenceProviderResolverHolder.java:84
PersistenceProviderResolverHolder.java:86
PersistenceProviderResolverHolder.java:87
PersistenceProviderResolverHolder.java:88
PersistenceProviderResolverHolder.java:92
PersistenceProviderResolverHolder.java:109
PersistenceProviderResolverHolder.java:113
PersistenceProviderResolverHolder.java:126
PersistenceProviderResolverHolder.java:130
PersistenceProviderResolverHolder.java:136
PersistenceProviderResolverHolder.java:137
PersistenceProviderResolverHolder.java:138
PersistenceProviderResolverHolder.java:139
PersistenceProviderResolverHolder.java:140
PersistenceProviderResolverHolder.java:148
PersistenceProviderResolverHolder.java:151
PersistenceProviderResolverHolder.java:154
PersistenceProviderResolverHolder.java:160
PersistenceProviderResolverHolder.java:182
PersistenceProviderResolverHolder.java:184
PersistenceProviderResolverHolder.java:185
LauncherHelper.java:401
LauncherHelper.java:402
LauncherHelper.java:481
LauncherHelper.java:486
CompoundEnumeration.java:44
CompoundEnumeration.java:45
CompoundEnumeration.java:46
CompoundEnumeration.java:48
CompoundEnumeration.java:50
CompoundEnumeration.java:54
CompoundEnumeration.java:61
FileURLMapper.java:45
FileURLMapper.java:54
FileURLMapper.java:55
FileURLMapper.java:57
FileURLMapper.java:58
FileURLMapper.java:65
FileURLMapper.java:66
FileURLMapper.java:71
IOUtils.java:52
IOUtils.java:54
IOUtils.java:55
IOUtils.java:57
IOUtils.java:58
IOUtils.java:59
IOUtils.java:60
IOUtils.java:65
IOUtils.java:66
IOUtils.java:76
IOUtils.java:78
JarIndex.java:129
JarIndex.java:133
JarIndex.java:137
JarIndex.java:142
MetaIndex.java:147
MetaIndex.java:236
MetaIndex.java:237
MetaIndex.java:240
MetaIndex.java:241
MetaIndex.java:242
MetaIndex.java:246
MetaIndex.java:272
URLClassPath.java:66
URLClassPath.java:66
URLClassPath.java:479
URLClassPath.java:482
URLClassPath.java:494
URLClassPath.java:504
URLClassPath.java:509
URLClassPath.java:513
URLClassPath.java:514
URLClassPath.java:516
URLClassPath.java:522
URLClassPath.java:523
URLClassPath.java:529
URLClassPath.java:532
URLClassPath.java:550
URLClassPath.java:556
URLClassPath.java:564
URLClassPath.java:637
URLClassPath.java:266
URLClassPath.java:272
URLClassPath.java:276
URLClassPath.java:277
URLClassPath.java:278
URLClassPath.java:279
URLClassPath.java:282
URLClassPath.java:287
URLClassPath.java:294
URLClassPath.java:295
URLClassPath.java:296
URLClassPath.java:565
URLClassPath.java:565
URLClassPath.java:567
URLClassPath.java:568
URLClassPath.java:575
URLClassPath.java:801
URLClassPath.java:801
URLClassPath.java:801
URLClassPath.java:801
URLClassPath.java:801
URLClassPath.java:801
URLClassPath.java:823
URLClassPath.java:826
URLClassPath.java:828
URLClassPath.java:831
URLClassPath.java:832
URLClassPath.java:834
URLClassPath.java:835
URLClassPath.java:850
URLClassPath.java:851
URLClassPath.java:872
URLClassPath.java:876
URLClassPath.java:878
URLClassPath.java:930
URLClassPath.java:935
URLClassPath.java:936
URLClassPath.java:937
URLClassPath.java:940
URLClassPath.java:969
URLClassPath.java:982
URLClassPath.java:1032
URLClassPath.java:1033
URLClassPath.java:1034
URLClassPath.java:1036
URLClassPath.java:1043
URLClassPath.java:1044
URLClassPath.java:1045
URLClassPath.java:1054
URLClassPath.java:1055
URLClassPath.java:1056
URLClassPath.java:1058
URLClassPath.java:1059
URLClassPath.java:1187
URLClassPath.java:1191
URLClassPath.java:1198
URLClassPath.java:1199
URLClassPath.java:879
URLClassPath.java:879
URLClassPath.java:886
URLClassPath.java:887
URLClassPath.java:982
URLClassPath.java:984
URLUtil.java:80
ParseUtil.java:174
ParseUtil.java:175
ParseUtil.java:176
Handler.java:41
JarURLConnection.java:164
JarURLConnection.java:103
UTF_8.java:68
UTF_8.java:72
UTF_8.java:81
UTF_8.java:84
UTF_8.java:554
UTF_8.java:558
UTF_8.java:704
UTF_8.java:705
UTF_8.java:706
UTF_8.java:709
UTF_8.java:710
UTF_8.java:712
UTF_8.java:743
Reflection.java:243
Reflection.java:244
Reflection.java:247
Reflection.java:249
ReflectionFactory.java:183
ReflectionFactory.java:184
ReflectionFactory.java:187
ReflectionFactory.java:194
ReflectionFactory.java:199
ReflectionFactory.java:208
ReflectionFactory.java:211
ReflectionFactory.java:330
ReflectionFactory.java:693
