Window,Lines Deleted,Compilations,Executions,Cachced Compilations,Cached Executions,Re-run Fail(1),Re-run Fail(2),Re-run Fail(3),Re-run Fail(4)
1,7,932,19,821,826,0,0,0,0
2,2,925,9,812,815,0,0,0,0
3,18,924,7,805,812,0,0,0,0
4,28,919,14,796,799,0,0,0,0
5,15,919,8,783,785,0,0,0,0
6,6,916,7,772,773,0,0,0,0
7,14,910,7,765,768,0,0,0,0
8,32,910,7,752,753,0,0,0,0
Total:,122,7355,78,6306,6331,0,0,0,0

