Em3d|-n 2 -d 2 -i 1|442|144|105|3,890378|0,4151662|0,359348|13|854||
Em3d|-n 2 -d 2 -i 1|443|145|87|3,890378|0,4151662|0,3749721|13|855||
Em3d|-n 2 -d 2 -i 1|444|146|87|3,890378|0,4151662|0,3905974|13|856||
Em3d|-n 2 -d 2 -i 1|445|147|87|3,890378|0,4151662|0,3905974|13|857||
Em3d|-n 2 -d 2 -i 1|446|148|87|3,890378|0,4151662|0,3905974|13|858||
