Window,Lines Deleted,Compilations,Executions,Cachced Compilations,Cached Executions,Re-run Fail(1),Re-run Fail(2),Re-run Fail(3),Re-run Fail(4)
1,39,1266,122,187,246,0,0,0,0
2,30,1246,77,183,210,0,0,0,0
3,102,1252,55,170,205,0,0,0,0
4,64,1249,63,157,180,0,0,0,0
5,65,1245,50,142,157,0,0,0,0
6,78,1260,50,108,120,0,0,0,0
7,28,1257,34,89,95,0,0,0,0
8,240,1273,38,52,58,0,0,0,0
Total:,646,10048,489,1088,1271,0,0,0,0

