Edge.cs:68
Edge.cs:69
Edge.cs:70
Edge.cs:71
Edge.cs:72
Edge.cs:79
Edge.cs:82
Edge.cs:201
Edge.cs:219
Edge.cs:264
Edge.cs:301
Edge.cs:313
Edge.cs:353
Edge.cs:355
Edge.cs:356
Edge.cs:358
Edge.cs:365
Edge.cs:367
Edge.cs:372
EdgePair.cs:13
EdgePair.cs:19
MyDouble.cs:12
Vec2.cs:28
Vec2.cs:33
Vec2.cs:38
Vertex.cs:47
Vertex.cs:52
Vertex.cs:60
Vertex.cs:62
Vertex.cs:65
Vertex.cs:67
Vertex.cs:68
Vertex.cs:69
Vertex.cs:70
Vertex.cs:71
Vertex.cs:72
Vertex.cs:73
Vertex.cs:74
Vertex.cs:76
Vertex.cs:77
Vertex.cs:85
Vertex.cs:86
Vertex.cs:96
Vertex.cs:102
Vertex.cs:103
Vertex.cs:105
Vertex.cs:107
Vertex.cs:118
Vertex.cs:121
Vertex.cs:124
Vertex.cs:125
Vertex.cs:212
Vertex.cs:213
Vertex.cs:214
Vertex.cs:216
Vertex.cs:217
Vertex.cs:218
Vertex.cs:220
Vertex.cs:221
Vertex.cs:222
Vertex.cs:224
Vertex.cs:225
Vertex.cs:226
Vertex.cs:227
Vertex.cs:228
Vertex.cs:229
Vertex.cs:230
Vertex.cs:255
Vertex.cs:256
Vertex.cs:258
Vertex.cs:259
Vertex.cs:261
Vertex.cs:262
Vertex.cs:263
Vertex.cs:264
Vertex.cs:276
Vertex.cs:278
Vertex.cs:279
Vertex.cs:280
Vertex.cs:281
Vertex.cs:282
Vertex.cs:297
Vertex.cs:299
Vertex.cs:300
Vertex.cs:305
Vertex.cs:306
Voronoi.cs:44
Voronoi.cs:50
Voronoi.cs:51
Voronoi.cs:52
Voronoi.cs:59
Voronoi.cs:72
Voronoi.cs:87
Voronoi.cs:90
Voronoi.cs:92
Voronoi.cs:94
Voronoi.cs:96
Voronoi.cs:98
---------------------
Edge.cs:43
Edge.cs:68
Edge.cs:69
Edge.cs:70
Edge.cs:71
Edge.cs:72
Vertex.cs:47
Vertex.cs:52
Vertex.cs:60
Vertex.cs:62
Vertex.cs:65
Vertex.cs:67
Vertex.cs:72
Vertex.cs:74
Vertex.cs:76
Vertex.cs:77
Vertex.cs:85
Vertex.cs:96
Vertex.cs:102
Vertex.cs:103
Vertex.cs:121
Vertex.cs:124
Voronoi.cs:44
Voronoi.cs:52
Voronoi.cs:59
Voronoi.cs:73
Voronoi.cs:87
Voronoi.cs:90
Voronoi.cs:92
Voronoi.cs:94
Voronoi.cs:96
Voronoi.cs:98
---------------------
Edge.cs:68
Edge.cs:69
Edge.cs:70
Edge.cs:71
Edge.cs:72
Vertex.cs:47
Vertex.cs:52
Vertex.cs:60
Vertex.cs:62
Vertex.cs:65
Vertex.cs:67
Vertex.cs:72
Vertex.cs:74
Vertex.cs:76
Vertex.cs:77
Vertex.cs:85
Vertex.cs:96
Vertex.cs:102
Vertex.cs:103
Vertex.cs:121
Vertex.cs:124
Voronoi.cs:44
Voronoi.cs:52
Voronoi.cs:59
Voronoi.cs:74
Voronoi.cs:87
Voronoi.cs:90
Voronoi.cs:92
Voronoi.cs:94
Voronoi.cs:96
Voronoi.cs:98
---------------------
Edge.cs:44
Edge.cs:68
Edge.cs:69
Edge.cs:70
Edge.cs:71
Edge.cs:72
Vertex.cs:47
Vertex.cs:52
Vertex.cs:60
Vertex.cs:62
Vertex.cs:65
Vertex.cs:67
Vertex.cs:72
Vertex.cs:74
Vertex.cs:76
Vertex.cs:77
Vertex.cs:85
Vertex.cs:96
Vertex.cs:102
Vertex.cs:103
Vertex.cs:121
Vertex.cs:124
Voronoi.cs:44
Voronoi.cs:52
Voronoi.cs:59
Voronoi.cs:75
Voronoi.cs:87
Voronoi.cs:90
Voronoi.cs:92
Voronoi.cs:94
Voronoi.cs:96
Voronoi.cs:98
---------------------
Edge.cs:42
Edge.cs:68
Edge.cs:69
Edge.cs:70
Edge.cs:71
Edge.cs:72
Edge.cs:80
Edge.cs:81
Edge.cs:95
Edge.cs:103
Edge.cs:148
Edge.cs:153
Edge.cs:198
Edge.cs:200
Edge.cs:201
Edge.cs:215
Edge.cs:216
Edge.cs:219
Edge.cs:264
Edge.cs:301
Edge.cs:313
Edge.cs:353
Edge.cs:355
Edge.cs:365
Edge.cs:367
Edge.cs:372
MyDouble.cs:12
Vec2.cs:28
Vec2.cs:33
Vec2.cs:38
Vertex.cs:47
Vertex.cs:52
Vertex.cs:60
Vertex.cs:62
Vertex.cs:65
Vertex.cs:67
Vertex.cs:68
Vertex.cs:69
Vertex.cs:70
Vertex.cs:71
Vertex.cs:72
Vertex.cs:73
Vertex.cs:74
Vertex.cs:76
Vertex.cs:77
Vertex.cs:85
Vertex.cs:96
Vertex.cs:102
Vertex.cs:103
Vertex.cs:105
Vertex.cs:121
Vertex.cs:124
Vertex.cs:212
Vertex.cs:213
Vertex.cs:214
Vertex.cs:216
Vertex.cs:217
Vertex.cs:218
Vertex.cs:220
Vertex.cs:221
Vertex.cs:222
Vertex.cs:224
Vertex.cs:225
Vertex.cs:226
Vertex.cs:227
Vertex.cs:228
Vertex.cs:229
Vertex.cs:230
Vertex.cs:255
Vertex.cs:256
Vertex.cs:258
Vertex.cs:259
Vertex.cs:261
Vertex.cs:262
Vertex.cs:263
Vertex.cs:264
Vertex.cs:276
Vertex.cs:278
Vertex.cs:279
Vertex.cs:280
Vertex.cs:281
Vertex.cs:282
Vertex.cs:297
Vertex.cs:299
Vertex.cs:300
Vertex.cs:305
Vertex.cs:306
Voronoi.cs:44
Voronoi.cs:50
Voronoi.cs:51
Voronoi.cs:52
Voronoi.cs:59
Voronoi.cs:76
Voronoi.cs:87
Voronoi.cs:90
Voronoi.cs:92
Voronoi.cs:94
Voronoi.cs:96
Voronoi.cs:98
---------------------
Edge.cs:68
Edge.cs:69
Edge.cs:70
Edge.cs:71
Edge.cs:72
Edge.cs:74
Edge.cs:75
Edge.cs:76
Edge.cs:77
Edge.cs:87
Edge.cs:108
Edge.cs:201
Edge.cs:202
Edge.cs:203
Edge.cs:219
Edge.cs:220
Edge.cs:221
Edge.cs:249
Edge.cs:250
Edge.cs:251
Edge.cs:252
Edge.cs:253
Edge.cs:254
Edge.cs:255
Edge.cs:256
Edge.cs:264
Edge.cs:270
Edge.cs:272
Edge.cs:301
Edge.cs:313
Edge.cs:316
Edge.cs:323
Edge.cs:325
Edge.cs:336
Edge.cs:342
Edge.cs:344
Edge.cs:353
Edge.cs:355
Edge.cs:365
Edge.cs:367
Edge.cs:372
MyDouble.cs:12
Vec2.cs:28
Vec2.cs:33
Vec2.cs:38
Vertex.cs:47
Vertex.cs:52
Vertex.cs:60
Vertex.cs:62
Vertex.cs:65
Vertex.cs:67
Vertex.cs:68
Vertex.cs:69
Vertex.cs:70
Vertex.cs:71
Vertex.cs:72
Vertex.cs:73
Vertex.cs:74
Vertex.cs:76
Vertex.cs:77
Vertex.cs:85
Vertex.cs:96
Vertex.cs:102
Vertex.cs:103
Vertex.cs:105
Vertex.cs:121
Vertex.cs:124
Vertex.cs:212
Vertex.cs:213
Vertex.cs:214
Vertex.cs:216
Vertex.cs:217
Vertex.cs:218
Vertex.cs:220
Vertex.cs:221
Vertex.cs:222
Vertex.cs:224
Vertex.cs:225
Vertex.cs:226
Vertex.cs:227
Vertex.cs:228
Vertex.cs:229
Vertex.cs:230
Vertex.cs:255
Vertex.cs:256
Vertex.cs:258
Vertex.cs:259
Vertex.cs:261
Vertex.cs:262
Vertex.cs:263
Vertex.cs:264
Vertex.cs:276
Vertex.cs:278
Vertex.cs:279
Vertex.cs:280
Vertex.cs:281
Vertex.cs:282
Vertex.cs:297
Vertex.cs:299
Vertex.cs:300
Vertex.cs:305
Vertex.cs:306
Voronoi.cs:44
Voronoi.cs:50
Voronoi.cs:51
Voronoi.cs:52
Voronoi.cs:59
Voronoi.cs:77
Voronoi.cs:87
Voronoi.cs:90
Voronoi.cs:92
Voronoi.cs:94
Voronoi.cs:96
Voronoi.cs:98
---------------------
