Power||31104|294|241|3,8747373|1,259916|5,359015|5660|53407|335562|86
Power||31105|295|241|3,8747373|1,259916|5,374638|5660|53408|335562|86
Power||31106|296|241|3,8747373|1,259916|5,374638|5660|53409|335562|86
Power||31107|297|241|3,8747373|1,259916|5,374638|5660|53410|335562|86
