LibLog_Log4Net||5|9|1|7,2117814||0,7975597|5|24|0|0
LibLog_Log4Net||17|17|7|7,2117814||1,0244252|5|64|98|60
LibLog_Log4Net||29|18|7|7,2117814||1,0454138|5|105|196|65
LibLog_Log4Net||30|19|1|7,2117814||1,0454138|5|109|196|64
