EntityA.cs:14
EntityA.cs:17
EntityA.cs:21
EntityA.cs:24
EntityA.cs:28
EntityA.cs:30
EntityA.cs:33
EntityA.cs:35
EntityA.cs:38
EntityA.cs:40
EntityA.cs:43
EntityA.cs:45
EntityA.cs:48
EntityA.cs:50
EntityB.cs:11
EntityB.cs:14
EntityB.cs:18
EntityB.cs:21
EntityB.cs:26
EntityB.cs:28
EntityB.cs:36
EntityB.cs:38
EntityB.cs:41
EntityB.cs:43
EntityB.cs:51
EntityB.cs:53
Main.cs:16
Main.cs:18
Main.cs:20
Main.cs:22
Main.cs:24
Main.cs:25
Main.cs:26
Main.cs:28
Main.cs:30
Main.cs:31
Main.cs:33
Main.cs:34
Main.cs:35
Main.cs:37
Main.cs:38
Main.cs:39
Main.cs:41
Main.cs:42
Main.cs:43
Main.cs:48
Main.cs:49
Main.cs:51
Main.cs:52
Main.cs:53
Main.cs:55
Main.cs:65
Main.cs:68
Main.cs:69
Main.cs:70
Main.cs:71
Main.cs:72
Main.cs:73
Main.cs:74
Main.cs:75
Main.cs:76
