Edge.java:43
Edge.java:44
Edge.java:52
Edge.java:68
Edge.java:69
Edge.java:70
Edge.java:71
Edge.java:72
Edge.java:74
Edge.java:75
Edge.java:76
Edge.java:77
Edge.java:79
Edge.java:80
Edge.java:81
Edge.java:82
Edge.java:87
Edge.java:95
Edge.java:103
Edge.java:108
Edge.java:113
Edge.java:118
Edge.java:133
Edge.java:148
Edge.java:153
Edge.java:163
Edge.java:173
Edge.java:183
Edge.java:198
Edge.java:199
Edge.java:200
Edge.java:201
Edge.java:202
Edge.java:203
Edge.java:204
Edge.java:215
Edge.java:216
Edge.java:217
Edge.java:219
Edge.java:220
Edge.java:221
Edge.java:222
Edge.java:247
Edge.java:248
Edge.java:249
Edge.java:250
Edge.java:251
Edge.java:252
Edge.java:253
Edge.java:254
Edge.java:255
Edge.java:256
Edge.java:261
Edge.java:262
Edge.java:263
Edge.java:264
Edge.java:269
Edge.java:270
Edge.java:271
Edge.java:272
Edge.java:279
Edge.java:280
Edge.java:281
Edge.java:283
Edge.java:285
Edge.java:287
Edge.java:288
Edge.java:291
Edge.java:293
Edge.java:295
Edge.java:301
Edge.java:303
Edge.java:304
Edge.java:305
Edge.java:306
Edge.java:308
Edge.java:309
Edge.java:310
Edge.java:311
Edge.java:315
Edge.java:316
Edge.java:318
Edge.java:320
Edge.java:321
Edge.java:322
Edge.java:323
Edge.java:325
Edge.java:326
Edge.java:328
Edge.java:329
Edge.java:330
Edge.java:331
Edge.java:335
Edge.java:336
Edge.java:338
Edge.java:339
Edge.java:340
Edge.java:341
Edge.java:342
Edge.java:344
Edge.java:345
Edge.java:346
Edge.java:347
Edge.java:348
Edge.java:349
Edge.java:353
Edge.java:355
Edge.java:356
Edge.java:358
Edge.java:361
Edge.java:362
Edge.java:363
Edge.java:364
Edge.java:365
Edge.java:367
Edge.java:368
Edge.java:372
Edge.java:373
EdgePair.java:13
EdgePair.java:14
EdgePair.java:19
EdgePair.java:24
MyDouble.java:12
Vec2.java:28
Vec2.java:33
Vec2.java:38
Vertex.java:47
Vertex.java:52
Vertex.java:60
Vertex.java:65
Vertex.java:67
Vertex.java:68
Vertex.java:69
Vertex.java:70
Vertex.java:71
Vertex.java:72
Vertex.java:73
Vertex.java:74
Vertex.java:76
Vertex.java:77
Vertex.java:85
Vertex.java:86
Vertex.java:96
Vertex.java:99
Vertex.java:100
Vertex.java:102
Vertex.java:103
Vertex.java:105
Vertex.java:107
Vertex.java:108
Vertex.java:112
Vertex.java:113
Vertex.java:118
Vertex.java:121
Vertex.java:124
Vertex.java:125
Vertex.java:149
Vertex.java:177
Vertex.java:179
Vertex.java:180
Vertex.java:181
Vertex.java:211
Vertex.java:212
Vertex.java:213
Vertex.java:214
Vertex.java:215
Vertex.java:216
Vertex.java:217
Vertex.java:218
Vertex.java:219
Vertex.java:220
Vertex.java:221
Vertex.java:222
Vertex.java:223
Vertex.java:224
Vertex.java:225
Vertex.java:226
Vertex.java:227
Vertex.java:228
Vertex.java:229
Vertex.java:230
Vertex.java:254
Vertex.java:255
Vertex.java:256
Vertex.java:257
Vertex.java:258
Vertex.java:259
Vertex.java:260
Vertex.java:261
Vertex.java:262
Vertex.java:263
Vertex.java:264
Vertex.java:276
Vertex.java:278
Vertex.java:279
Vertex.java:280
Vertex.java:281
Vertex.java:282
Vertex.java:297
Vertex.java:299
Vertex.java:300
Vertex.java:305
Vertex.java:306
Voronoi.java:44
Voronoi.java:50
Voronoi.java:51
Voronoi.java:52
Voronoi.java:59
Voronoi.java:73
Voronoi.java:87
Voronoi.java:90
Voronoi.java:92
Voronoi.java:94
Voronoi.java:96
Voronoi.java:98
