CustomerDaoImpl.java:41
OrderLibApp.java:25
OrderLibApp.java:34
OrderLibApp.java:35
OrderLibApp.java:36
OrderLibApp.java:37
OrderLibApp.java:50
OrderLibApp.java:55
OrderLibApp.java:58
OrderLibApp.java:60
OrderLibApp.java:86
OrderLibApp.java:91
OrderLibApp.java:93
OrderLibApp.java:138
OrderLibApp.java:144
OrderLibApp.java:150
OrderLibApp.java:155
OrderLibApp.java:157
OrderLibApp.java:408
OrderLibApp.java:434
CustomerServiceImpl.java:47
