PaymentMethod.java:51
OrderLibApp.java:25
OrderLibApp.java:34
OrderLibApp.java:35
OrderLibApp.java:36
OrderLibApp.java:42
OrderLibApp.java:50
OrderLibApp.java:55
OrderLibApp.java:73
OrderLibApp.java:75
OrderLibApp.java:86
OrderLibApp.java:91
OrderLibApp.java:102
OrderLibApp.java:138
OrderLibApp.java:275
OrderLibApp.java:276
OrderLibApp.java:279
OrderLibApp.java:282
OrderLibApp.java:307
OrderLibApp.java:309
CustomerServiceImpl.java:77
