OrderLibrary||871|387|45|5,1130694|4,9588681|1,0124201|33|2103|0|0
OrderLibrary||872|388|33|5,1130694|4,9588681|1,0304094|33|2104|0|0
OrderLibrary||873|389|110|5,1130694|4,9588681|1,0304094|33|2105|0|0
OrderLibrary||874|390|101|5,1130694|4,9588681|1,0314091|33|2106|0|0
OrderLibrary||875|391|152|5,1130694|4,9588681|1,0314091|33|2107|0|0
OrderLibrary||876|392|152|5,1130694|4,9588681|1,0324082|33|2108|0|0
OrderLibrary||877|393|157|5,1130694|4,9588681|1,03341|33|2109|0|0
OrderLibrary||878|394|147|5,1130694|4,9588681|1,0344091|33|2110|0|0
OrderLibrary||879|395|25|5,1130694|4,9588681|1,0344091|33|2111|0|0
OrderLibrary||880|396|158|5,1130694|4,9588681|1,0354085|33|2112|0|0
OrderLibrary||881|397|148|5,1130694|4,9588681|1,0384073|33|2113|0|0
OrderLibrary||882|398|169|5,1130694|4,9588681|1,0384073|33|2114|0|0
OrderLibrary||883|399|172|5,1130694|4,9588681|1,0394072|33|2115|0|0
OrderLibrary||884|400|172|5,1130694|4,9588681|1,0404056|33|2116|0|0
