Iteration,Lines Deleted,Compilations,Executions,Cachced Compilations,Cached Executions,Elapsed Time (hh:mm:ss:ms)
0,38,0,0,0,0,00:00:00:000
1,277,1499,131,208,265,00:02:04:759
2,0,728,0,464,464,00:00:37:588
Total:,315,2227,131,672,729,00:02:42:347

