Window,Lines Deleted,Compilations,Executions,Cachced Compilations,Cached Executions,Re-run Fail(1),Re-run Fail(2),Re-run Fail(3),Re-run Fail(4)
1,12,875,29,612,625,0,0,0,0
2,16,872,23,608,621,0,0,0,0
3,51,876,14,597,612,0,0,0,0
4,24,873,18,592,598,0,0,0,0
5,5,871,11,583,587,0,0,0,0
6,42,881,18,562,564,0,0,0,0
7,0,881,7,550,551,0,0,0,0
8,88,887,11,535,537,0,0,0,0
Total:,238,7016,131,4639,4695,0,0,0,0

