Edge.cs:35
Edge.cs:40
Edge.cs:42
Edge.cs:43
Edge.cs:44
Edge.cs:50
Edge.cs:51
Edge.cs:66
Edge.cs:68
Edge.cs:69
Edge.cs:70
Edge.cs:71
Edge.cs:72
Edge.cs:74
Edge.cs:75
Edge.cs:76
Edge.cs:77
Edge.cs:79
Edge.cs:80
Edge.cs:81
Edge.cs:82
Edge.cs:85
Edge.cs:87
Edge.cs:93
Edge.cs:95
Edge.cs:101
Edge.cs:103
Edge.cs:106
Edge.cs:108
Edge.cs:111
Edge.cs:113
Edge.cs:116
Edge.cs:118
Edge.cs:131
Edge.cs:133
Edge.cs:146
Edge.cs:148
Edge.cs:151
Edge.cs:153
Edge.cs:161
Edge.cs:163
Edge.cs:171
Edge.cs:173
Edge.cs:181
Edge.cs:183
Edge.cs:191
Edge.cs:198
Edge.cs:199
Edge.cs:200
Edge.cs:201
Edge.cs:202
Edge.cs:203
Edge.cs:204
Edge.cs:207
Edge.cs:215
Edge.cs:216
Edge.cs:217
Edge.cs:219
Edge.cs:220
Edge.cs:221
Edge.cs:222
Edge.cs:245
Edge.cs:247
Edge.cs:248
Edge.cs:249
Edge.cs:250
Edge.cs:251
Edge.cs:252
Edge.cs:253
Edge.cs:254
Edge.cs:255
Edge.cs:256
Edge.cs:259
Edge.cs:261
Edge.cs:262
Edge.cs:263
Edge.cs:264
Edge.cs:267
Edge.cs:269
Edge.cs:270
Edge.cs:271
Edge.cs:272
Edge.cs:275
Edge.cs:277
Edge.cs:279
Edge.cs:280
Edge.cs:281
Edge.cs:283
Edge.cs:285
Edge.cs:287
Edge.cs:288
Edge.cs:291
Edge.cs:293
Edge.cs:295
Edge.cs:301
Edge.cs:303
Edge.cs:304
Edge.cs:305
Edge.cs:306
Edge.cs:308
Edge.cs:309
Edge.cs:310
Edge.cs:311
Edge.cs:313
Edge.cs:315
Edge.cs:316
Edge.cs:318
Edge.cs:320
Edge.cs:321
Edge.cs:322
Edge.cs:323
Edge.cs:325
Edge.cs:326
Edge.cs:328
Edge.cs:329
Edge.cs:330
Edge.cs:331
Edge.cs:335
Edge.cs:336
Edge.cs:338
Edge.cs:339
Edge.cs:340
Edge.cs:341
Edge.cs:342
Edge.cs:344
Edge.cs:345
Edge.cs:353
Edge.cs:355
Edge.cs:356
Edge.cs:358
Edge.cs:361
Edge.cs:362
Edge.cs:363
Edge.cs:364
Edge.cs:365
Edge.cs:367
Edge.cs:368
Edge.cs:372
Edge.cs:373
EdgePair.cs:11
EdgePair.cs:13
EdgePair.cs:14
EdgePair.cs:17
EdgePair.cs:19
EdgePair.cs:22
EdgePair.cs:24
MyDouble.cs:10
MyDouble.cs:12
Vec2.cs:26
Vec2.cs:28
Vec2.cs:31
Vec2.cs:33
Vec2.cs:36
Vec2.cs:38
Vertex.cs:45
Vertex.cs:47
Vertex.cs:50
Vertex.cs:52
Vertex.cs:58
Vertex.cs:60
Vertex.cs:62
Vertex.cs:65
Vertex.cs:67
Vertex.cs:68
Vertex.cs:69
Vertex.cs:70
Vertex.cs:71
Vertex.cs:72
Vertex.cs:73
Vertex.cs:74
Vertex.cs:76
Vertex.cs:77
Vertex.cs:83
Vertex.cs:85
Vertex.cs:86
Vertex.cs:93
Vertex.cs:96
Vertex.cs:102
Vertex.cs:103
Vertex.cs:105
Vertex.cs:107
Vertex.cs:112
Vertex.cs:118
Vertex.cs:121
Vertex.cs:124
Vertex.cs:125
Vertex.cs:149
Vertex.cs:187
Vertex.cs:211
Vertex.cs:212
Vertex.cs:213
Vertex.cs:214
Vertex.cs:215
Vertex.cs:216
Vertex.cs:217
Vertex.cs:218
Vertex.cs:219
Vertex.cs:220
Vertex.cs:221
Vertex.cs:222
Vertex.cs:223
Vertex.cs:224
Vertex.cs:225
Vertex.cs:226
Vertex.cs:227
Vertex.cs:228
Vertex.cs:229
Vertex.cs:230
Vertex.cs:233
Vertex.cs:254
Vertex.cs:255
Vertex.cs:256
Vertex.cs:257
Vertex.cs:258
Vertex.cs:259
Vertex.cs:260
Vertex.cs:261
Vertex.cs:262
Vertex.cs:263
Vertex.cs:264
Vertex.cs:270
Vertex.cs:276
Vertex.cs:278
Vertex.cs:279
Vertex.cs:280
Vertex.cs:281
Vertex.cs:282
Vertex.cs:295
Vertex.cs:297
Vertex.cs:299
Vertex.cs:300
Vertex.cs:305
Vertex.cs:306
Voronoi.cs:42
Voronoi.cs:44
Voronoi.cs:50
Voronoi.cs:51
Voronoi.cs:52
Voronoi.cs:59
Voronoi.cs:72
Voronoi.cs:85
Voronoi.cs:87
Voronoi.cs:90
Voronoi.cs:92
Voronoi.cs:94
Voronoi.cs:96
Voronoi.cs:98
---------------------
Edge.cs:35
Edge.cs:40
Edge.cs:42
Edge.cs:43
Edge.cs:44
Edge.cs:50
Edge.cs:51
Edge.cs:66
Edge.cs:68
Edge.cs:69
Edge.cs:70
Edge.cs:71
Edge.cs:72
Edge.cs:74
Edge.cs:75
Edge.cs:76
Edge.cs:77
Edge.cs:79
Edge.cs:80
Edge.cs:81
Edge.cs:82
Edge.cs:85
Edge.cs:87
Edge.cs:93
Edge.cs:95
Edge.cs:101
Edge.cs:103
Edge.cs:106
Edge.cs:108
Edge.cs:111
Edge.cs:113
Edge.cs:116
Edge.cs:118
Edge.cs:131
Edge.cs:133
Edge.cs:146
Edge.cs:148
Edge.cs:151
Edge.cs:153
Edge.cs:161
Edge.cs:163
Edge.cs:171
Edge.cs:173
Edge.cs:181
Edge.cs:183
Edge.cs:191
Edge.cs:198
Edge.cs:199
Edge.cs:200
Edge.cs:201
Edge.cs:202
Edge.cs:203
Edge.cs:204
Edge.cs:207
Edge.cs:215
Edge.cs:216
Edge.cs:217
Edge.cs:219
Edge.cs:220
Edge.cs:221
Edge.cs:222
Edge.cs:245
Edge.cs:247
Edge.cs:248
Edge.cs:249
Edge.cs:250
Edge.cs:251
Edge.cs:252
Edge.cs:253
Edge.cs:254
Edge.cs:255
Edge.cs:256
Edge.cs:259
Edge.cs:261
Edge.cs:262
Edge.cs:263
Edge.cs:264
Edge.cs:267
Edge.cs:269
Edge.cs:270
Edge.cs:271
Edge.cs:272
Edge.cs:275
Edge.cs:277
Edge.cs:279
Edge.cs:280
Edge.cs:281
Edge.cs:283
Edge.cs:285
Edge.cs:287
Edge.cs:288
Edge.cs:291
Edge.cs:293
Edge.cs:295
Edge.cs:301
Edge.cs:303
Edge.cs:304
Edge.cs:305
Edge.cs:306
Edge.cs:308
Edge.cs:309
Edge.cs:310
Edge.cs:311
Edge.cs:313
Edge.cs:315
Edge.cs:316
Edge.cs:318
Edge.cs:320
Edge.cs:321
Edge.cs:322
Edge.cs:323
Edge.cs:325
Edge.cs:326
Edge.cs:328
Edge.cs:329
Edge.cs:330
Edge.cs:331
Edge.cs:335
Edge.cs:336
Edge.cs:338
Edge.cs:339
Edge.cs:340
Edge.cs:341
Edge.cs:342
Edge.cs:344
Edge.cs:345
Edge.cs:353
Edge.cs:355
Edge.cs:356
Edge.cs:358
Edge.cs:361
Edge.cs:362
Edge.cs:363
Edge.cs:364
Edge.cs:365
Edge.cs:367
Edge.cs:368
Edge.cs:372
Edge.cs:373
EdgePair.cs:11
EdgePair.cs:13
EdgePair.cs:14
EdgePair.cs:17
EdgePair.cs:19
EdgePair.cs:22
EdgePair.cs:24
MyDouble.cs:10
MyDouble.cs:12
Vec2.cs:26
Vec2.cs:28
Vec2.cs:31
Vec2.cs:33
Vec2.cs:36
Vec2.cs:38
Vertex.cs:45
Vertex.cs:47
Vertex.cs:50
Vertex.cs:52
Vertex.cs:58
Vertex.cs:60
Vertex.cs:62
Vertex.cs:65
Vertex.cs:67
Vertex.cs:68
Vertex.cs:69
Vertex.cs:70
Vertex.cs:71
Vertex.cs:72
Vertex.cs:73
Vertex.cs:74
Vertex.cs:76
Vertex.cs:77
Vertex.cs:83
Vertex.cs:85
Vertex.cs:86
Vertex.cs:93
Vertex.cs:96
Vertex.cs:102
Vertex.cs:103
Vertex.cs:105
Vertex.cs:107
Vertex.cs:112
Vertex.cs:118
Vertex.cs:121
Vertex.cs:124
Vertex.cs:125
Vertex.cs:149
Vertex.cs:187
Vertex.cs:211
Vertex.cs:212
Vertex.cs:213
Vertex.cs:214
Vertex.cs:215
Vertex.cs:216
Vertex.cs:217
Vertex.cs:218
Vertex.cs:219
Vertex.cs:220
Vertex.cs:221
Vertex.cs:222
Vertex.cs:223
Vertex.cs:224
Vertex.cs:225
Vertex.cs:226
Vertex.cs:227
Vertex.cs:228
Vertex.cs:229
Vertex.cs:230
Vertex.cs:233
Vertex.cs:254
Vertex.cs:255
Vertex.cs:256
Vertex.cs:257
Vertex.cs:258
Vertex.cs:259
Vertex.cs:260
Vertex.cs:261
Vertex.cs:262
Vertex.cs:263
Vertex.cs:264
Vertex.cs:270
Vertex.cs:276
Vertex.cs:278
Vertex.cs:279
Vertex.cs:280
Vertex.cs:281
Vertex.cs:282
Vertex.cs:295
Vertex.cs:297
Vertex.cs:299
Vertex.cs:300
Vertex.cs:305
Vertex.cs:306
Voronoi.cs:42
Voronoi.cs:44
Voronoi.cs:50
Voronoi.cs:51
Voronoi.cs:52
Voronoi.cs:59
Voronoi.cs:73
Voronoi.cs:85
Voronoi.cs:87
Voronoi.cs:90
Voronoi.cs:92
Voronoi.cs:94
Voronoi.cs:96
Voronoi.cs:98
---------------------
Edge.cs:35
Edge.cs:40
Edge.cs:42
Edge.cs:43
Edge.cs:44
Edge.cs:50
Edge.cs:51
Edge.cs:66
Edge.cs:68
Edge.cs:69
Edge.cs:70
Edge.cs:71
Edge.cs:72
Edge.cs:74
Edge.cs:75
Edge.cs:76
Edge.cs:77
Edge.cs:79
Edge.cs:80
Edge.cs:81
Edge.cs:82
Edge.cs:85
Edge.cs:87
Edge.cs:93
Edge.cs:95
Edge.cs:101
Edge.cs:103
Edge.cs:106
Edge.cs:108
Edge.cs:111
Edge.cs:113
Edge.cs:116
Edge.cs:118
Edge.cs:131
Edge.cs:133
Edge.cs:146
Edge.cs:148
Edge.cs:151
Edge.cs:153
Edge.cs:161
Edge.cs:163
Edge.cs:171
Edge.cs:173
Edge.cs:181
Edge.cs:183
Edge.cs:191
Edge.cs:198
Edge.cs:199
Edge.cs:200
Edge.cs:201
Edge.cs:202
Edge.cs:203
Edge.cs:204
Edge.cs:207
Edge.cs:215
Edge.cs:216
Edge.cs:217
Edge.cs:219
Edge.cs:220
Edge.cs:221
Edge.cs:222
Edge.cs:245
Edge.cs:247
Edge.cs:248
Edge.cs:249
Edge.cs:250
Edge.cs:251
Edge.cs:252
Edge.cs:253
Edge.cs:254
Edge.cs:255
Edge.cs:256
Edge.cs:259
Edge.cs:261
Edge.cs:262
Edge.cs:263
Edge.cs:264
Edge.cs:267
Edge.cs:269
Edge.cs:270
Edge.cs:271
Edge.cs:272
Edge.cs:275
Edge.cs:277
Edge.cs:279
Edge.cs:280
Edge.cs:281
Edge.cs:283
Edge.cs:285
Edge.cs:287
Edge.cs:288
Edge.cs:291
Edge.cs:293
Edge.cs:295
Edge.cs:301
Edge.cs:303
Edge.cs:304
Edge.cs:305
Edge.cs:306
Edge.cs:308
Edge.cs:309
Edge.cs:310
Edge.cs:311
Edge.cs:313
Edge.cs:315
Edge.cs:316
Edge.cs:318
Edge.cs:320
Edge.cs:321
Edge.cs:322
Edge.cs:323
Edge.cs:325
Edge.cs:326
Edge.cs:328
Edge.cs:329
Edge.cs:330
Edge.cs:331
Edge.cs:335
Edge.cs:336
Edge.cs:338
Edge.cs:339
Edge.cs:340
Edge.cs:341
Edge.cs:342
Edge.cs:344
Edge.cs:345
Edge.cs:353
Edge.cs:355
Edge.cs:356
Edge.cs:358
Edge.cs:361
Edge.cs:362
Edge.cs:363
Edge.cs:364
Edge.cs:365
Edge.cs:367
Edge.cs:368
Edge.cs:372
Edge.cs:373
EdgePair.cs:11
EdgePair.cs:13
EdgePair.cs:14
EdgePair.cs:17
EdgePair.cs:19
EdgePair.cs:22
EdgePair.cs:24
MyDouble.cs:10
MyDouble.cs:12
Vec2.cs:26
Vec2.cs:28
Vec2.cs:31
Vec2.cs:33
Vec2.cs:36
Vec2.cs:38
Vertex.cs:45
Vertex.cs:47
Vertex.cs:50
Vertex.cs:52
Vertex.cs:58
Vertex.cs:60
Vertex.cs:62
Vertex.cs:65
Vertex.cs:67
Vertex.cs:68
Vertex.cs:69
Vertex.cs:70
Vertex.cs:71
Vertex.cs:72
Vertex.cs:73
Vertex.cs:74
Vertex.cs:76
Vertex.cs:77
Vertex.cs:83
Vertex.cs:85
Vertex.cs:86
Vertex.cs:93
Vertex.cs:96
Vertex.cs:102
Vertex.cs:103
Vertex.cs:105
Vertex.cs:107
Vertex.cs:112
Vertex.cs:118
Vertex.cs:121
Vertex.cs:124
Vertex.cs:125
Vertex.cs:149
Vertex.cs:187
Vertex.cs:211
Vertex.cs:212
Vertex.cs:213
Vertex.cs:214
Vertex.cs:215
Vertex.cs:216
Vertex.cs:217
Vertex.cs:218
Vertex.cs:219
Vertex.cs:220
Vertex.cs:221
Vertex.cs:222
Vertex.cs:223
Vertex.cs:224
Vertex.cs:225
Vertex.cs:226
Vertex.cs:227
Vertex.cs:228
Vertex.cs:229
Vertex.cs:230
Vertex.cs:233
Vertex.cs:254
Vertex.cs:255
Vertex.cs:256
Vertex.cs:257
Vertex.cs:258
Vertex.cs:259
Vertex.cs:260
Vertex.cs:261
Vertex.cs:262
Vertex.cs:263
Vertex.cs:264
Vertex.cs:270
Vertex.cs:276
Vertex.cs:278
Vertex.cs:279
Vertex.cs:280
Vertex.cs:281
Vertex.cs:282
Vertex.cs:295
Vertex.cs:297
Vertex.cs:299
Vertex.cs:300
Vertex.cs:305
Vertex.cs:306
Voronoi.cs:42
Voronoi.cs:44
Voronoi.cs:50
Voronoi.cs:51
Voronoi.cs:52
Voronoi.cs:59
Voronoi.cs:74
Voronoi.cs:85
Voronoi.cs:87
Voronoi.cs:90
Voronoi.cs:92
Voronoi.cs:94
Voronoi.cs:96
Voronoi.cs:98
---------------------
Edge.cs:35
Edge.cs:40
Edge.cs:42
Edge.cs:43
Edge.cs:44
Edge.cs:50
Edge.cs:51
Edge.cs:66
Edge.cs:68
Edge.cs:69
Edge.cs:70
Edge.cs:71
Edge.cs:72
Edge.cs:74
Edge.cs:75
Edge.cs:76
Edge.cs:77
Edge.cs:79
Edge.cs:80
Edge.cs:81
Edge.cs:82
Edge.cs:85
Edge.cs:87
Edge.cs:93
Edge.cs:95
Edge.cs:101
Edge.cs:103
Edge.cs:106
Edge.cs:108
Edge.cs:111
Edge.cs:113
Edge.cs:116
Edge.cs:118
Edge.cs:131
Edge.cs:133
Edge.cs:146
Edge.cs:148
Edge.cs:151
Edge.cs:153
Edge.cs:161
Edge.cs:163
Edge.cs:171
Edge.cs:173
Edge.cs:181
Edge.cs:183
Edge.cs:191
Edge.cs:198
Edge.cs:199
Edge.cs:200
Edge.cs:201
Edge.cs:202
Edge.cs:203
Edge.cs:204
Edge.cs:207
Edge.cs:215
Edge.cs:216
Edge.cs:217
Edge.cs:219
Edge.cs:220
Edge.cs:221
Edge.cs:222
Edge.cs:245
Edge.cs:247
Edge.cs:248
Edge.cs:249
Edge.cs:250
Edge.cs:251
Edge.cs:252
Edge.cs:253
Edge.cs:254
Edge.cs:255
Edge.cs:256
Edge.cs:259
Edge.cs:261
Edge.cs:262
Edge.cs:263
Edge.cs:264
Edge.cs:267
Edge.cs:269
Edge.cs:270
Edge.cs:271
Edge.cs:272
Edge.cs:275
Edge.cs:277
Edge.cs:279
Edge.cs:280
Edge.cs:281
Edge.cs:283
Edge.cs:285
Edge.cs:287
Edge.cs:288
Edge.cs:291
Edge.cs:293
Edge.cs:295
Edge.cs:301
Edge.cs:303
Edge.cs:304
Edge.cs:305
Edge.cs:306
Edge.cs:308
Edge.cs:309
Edge.cs:310
Edge.cs:311
Edge.cs:313
Edge.cs:315
Edge.cs:316
Edge.cs:318
Edge.cs:320
Edge.cs:321
Edge.cs:322
Edge.cs:323
Edge.cs:325
Edge.cs:326
Edge.cs:328
Edge.cs:329
Edge.cs:330
Edge.cs:331
Edge.cs:335
Edge.cs:336
Edge.cs:338
Edge.cs:339
Edge.cs:340
Edge.cs:341
Edge.cs:342
Edge.cs:344
Edge.cs:345
Edge.cs:353
Edge.cs:355
Edge.cs:356
Edge.cs:358
Edge.cs:361
Edge.cs:362
Edge.cs:363
Edge.cs:364
Edge.cs:365
Edge.cs:367
Edge.cs:368
Edge.cs:372
Edge.cs:373
EdgePair.cs:11
EdgePair.cs:13
EdgePair.cs:14
EdgePair.cs:17
EdgePair.cs:19
EdgePair.cs:22
EdgePair.cs:24
MyDouble.cs:10
MyDouble.cs:12
Vec2.cs:26
Vec2.cs:28
Vec2.cs:31
Vec2.cs:33
Vec2.cs:36
Vec2.cs:38
Vertex.cs:45
Vertex.cs:47
Vertex.cs:50
Vertex.cs:52
Vertex.cs:58
Vertex.cs:60
Vertex.cs:62
Vertex.cs:65
Vertex.cs:67
Vertex.cs:68
Vertex.cs:69
Vertex.cs:70
Vertex.cs:71
Vertex.cs:72
Vertex.cs:73
Vertex.cs:74
Vertex.cs:76
Vertex.cs:77
Vertex.cs:83
Vertex.cs:85
Vertex.cs:86
Vertex.cs:93
Vertex.cs:96
Vertex.cs:102
Vertex.cs:103
Vertex.cs:105
Vertex.cs:107
Vertex.cs:112
Vertex.cs:118
Vertex.cs:121
Vertex.cs:124
Vertex.cs:125
Vertex.cs:149
Vertex.cs:187
Vertex.cs:211
Vertex.cs:212
Vertex.cs:213
Vertex.cs:214
Vertex.cs:215
Vertex.cs:216
Vertex.cs:217
Vertex.cs:218
Vertex.cs:219
Vertex.cs:220
Vertex.cs:221
Vertex.cs:222
Vertex.cs:223
Vertex.cs:224
Vertex.cs:225
Vertex.cs:226
Vertex.cs:227
Vertex.cs:228
Vertex.cs:229
Vertex.cs:230
Vertex.cs:233
Vertex.cs:254
Vertex.cs:255
Vertex.cs:256
Vertex.cs:257
Vertex.cs:258
Vertex.cs:259
Vertex.cs:260
Vertex.cs:261
Vertex.cs:262
Vertex.cs:263
Vertex.cs:264
Vertex.cs:270
Vertex.cs:276
Vertex.cs:278
Vertex.cs:279
Vertex.cs:280
Vertex.cs:281
Vertex.cs:282
Vertex.cs:295
Vertex.cs:297
Vertex.cs:299
Vertex.cs:300
Vertex.cs:305
Vertex.cs:306
Voronoi.cs:42
Voronoi.cs:44
Voronoi.cs:50
Voronoi.cs:51
Voronoi.cs:52
Voronoi.cs:59
Voronoi.cs:75
Voronoi.cs:85
Voronoi.cs:87
Voronoi.cs:90
Voronoi.cs:92
Voronoi.cs:94
Voronoi.cs:96
Voronoi.cs:98
---------------------
Edge.cs:35
Edge.cs:40
Edge.cs:42
Edge.cs:43
Edge.cs:44
Edge.cs:50
Edge.cs:51
Edge.cs:66
Edge.cs:68
Edge.cs:69
Edge.cs:70
Edge.cs:71
Edge.cs:72
Edge.cs:74
Edge.cs:75
Edge.cs:76
Edge.cs:77
Edge.cs:79
Edge.cs:80
Edge.cs:81
Edge.cs:82
Edge.cs:85
Edge.cs:87
Edge.cs:93
Edge.cs:95
Edge.cs:101
Edge.cs:103
Edge.cs:106
Edge.cs:108
Edge.cs:111
Edge.cs:113
Edge.cs:116
Edge.cs:118
Edge.cs:131
Edge.cs:133
Edge.cs:146
Edge.cs:148
Edge.cs:151
Edge.cs:153
Edge.cs:161
Edge.cs:163
Edge.cs:171
Edge.cs:173
Edge.cs:181
Edge.cs:183
Edge.cs:191
Edge.cs:198
Edge.cs:199
Edge.cs:200
Edge.cs:201
Edge.cs:202
Edge.cs:203
Edge.cs:204
Edge.cs:207
Edge.cs:215
Edge.cs:216
Edge.cs:217
Edge.cs:219
Edge.cs:220
Edge.cs:221
Edge.cs:222
Edge.cs:245
Edge.cs:247
Edge.cs:248
Edge.cs:249
Edge.cs:250
Edge.cs:251
Edge.cs:252
Edge.cs:253
Edge.cs:254
Edge.cs:255
Edge.cs:256
Edge.cs:259
Edge.cs:261
Edge.cs:262
Edge.cs:263
Edge.cs:264
Edge.cs:267
Edge.cs:269
Edge.cs:270
Edge.cs:271
Edge.cs:272
Edge.cs:275
Edge.cs:277
Edge.cs:279
Edge.cs:280
Edge.cs:281
Edge.cs:283
Edge.cs:285
Edge.cs:287
Edge.cs:288
Edge.cs:291
Edge.cs:293
Edge.cs:295
Edge.cs:301
Edge.cs:303
Edge.cs:304
Edge.cs:305
Edge.cs:306
Edge.cs:308
Edge.cs:309
Edge.cs:310
Edge.cs:311
Edge.cs:313
Edge.cs:315
Edge.cs:316
Edge.cs:318
Edge.cs:320
Edge.cs:321
Edge.cs:322
Edge.cs:323
Edge.cs:325
Edge.cs:326
Edge.cs:328
Edge.cs:329
Edge.cs:330
Edge.cs:331
Edge.cs:335
Edge.cs:336
Edge.cs:338
Edge.cs:339
Edge.cs:340
Edge.cs:341
Edge.cs:342
Edge.cs:344
Edge.cs:345
Edge.cs:353
Edge.cs:355
Edge.cs:356
Edge.cs:358
Edge.cs:361
Edge.cs:362
Edge.cs:363
Edge.cs:364
Edge.cs:365
Edge.cs:367
Edge.cs:368
Edge.cs:372
Edge.cs:373
EdgePair.cs:11
EdgePair.cs:13
EdgePair.cs:14
EdgePair.cs:17
EdgePair.cs:19
EdgePair.cs:22
EdgePair.cs:24
MyDouble.cs:10
MyDouble.cs:12
Vec2.cs:26
Vec2.cs:28
Vec2.cs:31
Vec2.cs:33
Vec2.cs:36
Vec2.cs:38
Vertex.cs:45
Vertex.cs:47
Vertex.cs:50
Vertex.cs:52
Vertex.cs:58
Vertex.cs:60
Vertex.cs:62
Vertex.cs:65
Vertex.cs:67
Vertex.cs:68
Vertex.cs:69
Vertex.cs:70
Vertex.cs:71
Vertex.cs:72
Vertex.cs:73
Vertex.cs:74
Vertex.cs:76
Vertex.cs:77
Vertex.cs:83
Vertex.cs:85
Vertex.cs:86
Vertex.cs:93
Vertex.cs:96
Vertex.cs:102
Vertex.cs:103
Vertex.cs:105
Vertex.cs:107
Vertex.cs:112
Vertex.cs:118
Vertex.cs:121
Vertex.cs:124
Vertex.cs:125
Vertex.cs:149
Vertex.cs:187
Vertex.cs:211
Vertex.cs:212
Vertex.cs:213
Vertex.cs:214
Vertex.cs:215
Vertex.cs:216
Vertex.cs:217
Vertex.cs:218
Vertex.cs:219
Vertex.cs:220
Vertex.cs:221
Vertex.cs:222
Vertex.cs:223
Vertex.cs:224
Vertex.cs:225
Vertex.cs:226
Vertex.cs:227
Vertex.cs:228
Vertex.cs:229
Vertex.cs:230
Vertex.cs:233
Vertex.cs:254
Vertex.cs:255
Vertex.cs:256
Vertex.cs:257
Vertex.cs:258
Vertex.cs:259
Vertex.cs:260
Vertex.cs:261
Vertex.cs:262
Vertex.cs:263
Vertex.cs:264
Vertex.cs:270
Vertex.cs:276
Vertex.cs:278
Vertex.cs:279
Vertex.cs:280
Vertex.cs:281
Vertex.cs:282
Vertex.cs:295
Vertex.cs:297
Vertex.cs:299
Vertex.cs:300
Vertex.cs:305
Vertex.cs:306
Voronoi.cs:42
Voronoi.cs:44
Voronoi.cs:50
Voronoi.cs:51
Voronoi.cs:52
Voronoi.cs:59
Voronoi.cs:76
Voronoi.cs:85
Voronoi.cs:87
Voronoi.cs:90
Voronoi.cs:92
Voronoi.cs:94
Voronoi.cs:96
Voronoi.cs:98
---------------------
Edge.cs:35
Edge.cs:40
Edge.cs:42
Edge.cs:43
Edge.cs:44
Edge.cs:50
Edge.cs:51
Edge.cs:66
Edge.cs:68
Edge.cs:69
Edge.cs:70
Edge.cs:71
Edge.cs:72
Edge.cs:74
Edge.cs:75
Edge.cs:76
Edge.cs:77
Edge.cs:79
Edge.cs:80
Edge.cs:81
Edge.cs:82
Edge.cs:85
Edge.cs:87
Edge.cs:93
Edge.cs:95
Edge.cs:101
Edge.cs:103
Edge.cs:106
Edge.cs:108
Edge.cs:111
Edge.cs:113
Edge.cs:116
Edge.cs:118
Edge.cs:131
Edge.cs:133
Edge.cs:146
Edge.cs:148
Edge.cs:151
Edge.cs:153
Edge.cs:161
Edge.cs:163
Edge.cs:171
Edge.cs:173
Edge.cs:181
Edge.cs:183
Edge.cs:191
Edge.cs:198
Edge.cs:199
Edge.cs:200
Edge.cs:201
Edge.cs:202
Edge.cs:203
Edge.cs:204
Edge.cs:207
Edge.cs:215
Edge.cs:216
Edge.cs:217
Edge.cs:219
Edge.cs:220
Edge.cs:221
Edge.cs:222
Edge.cs:245
Edge.cs:247
Edge.cs:248
Edge.cs:249
Edge.cs:250
Edge.cs:251
Edge.cs:252
Edge.cs:253
Edge.cs:254
Edge.cs:255
Edge.cs:256
Edge.cs:259
Edge.cs:261
Edge.cs:262
Edge.cs:263
Edge.cs:264
Edge.cs:267
Edge.cs:269
Edge.cs:270
Edge.cs:271
Edge.cs:272
Edge.cs:275
Edge.cs:277
Edge.cs:279
Edge.cs:280
Edge.cs:281
Edge.cs:283
Edge.cs:285
Edge.cs:287
Edge.cs:288
Edge.cs:291
Edge.cs:293
Edge.cs:295
Edge.cs:301
Edge.cs:303
Edge.cs:304
Edge.cs:305
Edge.cs:306
Edge.cs:308
Edge.cs:309
Edge.cs:310
Edge.cs:311
Edge.cs:313
Edge.cs:315
Edge.cs:316
Edge.cs:318
Edge.cs:320
Edge.cs:321
Edge.cs:322
Edge.cs:323
Edge.cs:325
Edge.cs:326
Edge.cs:328
Edge.cs:329
Edge.cs:330
Edge.cs:331
Edge.cs:335
Edge.cs:336
Edge.cs:338
Edge.cs:339
Edge.cs:340
Edge.cs:341
Edge.cs:342
Edge.cs:344
Edge.cs:345
Edge.cs:353
Edge.cs:355
Edge.cs:356
Edge.cs:358
Edge.cs:361
Edge.cs:362
Edge.cs:363
Edge.cs:364
Edge.cs:365
Edge.cs:367
Edge.cs:368
Edge.cs:372
Edge.cs:373
EdgePair.cs:11
EdgePair.cs:13
EdgePair.cs:14
EdgePair.cs:17
EdgePair.cs:19
EdgePair.cs:22
EdgePair.cs:24
MyDouble.cs:10
MyDouble.cs:12
Vec2.cs:26
Vec2.cs:28
Vec2.cs:31
Vec2.cs:33
Vec2.cs:36
Vec2.cs:38
Vertex.cs:45
Vertex.cs:47
Vertex.cs:50
Vertex.cs:52
Vertex.cs:58
Vertex.cs:60
Vertex.cs:62
Vertex.cs:65
Vertex.cs:67
Vertex.cs:68
Vertex.cs:69
Vertex.cs:70
Vertex.cs:71
Vertex.cs:72
Vertex.cs:73
Vertex.cs:74
Vertex.cs:76
Vertex.cs:77
Vertex.cs:83
Vertex.cs:85
Vertex.cs:86
Vertex.cs:93
Vertex.cs:96
Vertex.cs:102
Vertex.cs:103
Vertex.cs:105
Vertex.cs:107
Vertex.cs:112
Vertex.cs:118
Vertex.cs:121
Vertex.cs:124
Vertex.cs:125
Vertex.cs:149
Vertex.cs:187
Vertex.cs:211
Vertex.cs:212
Vertex.cs:213
Vertex.cs:214
Vertex.cs:215
Vertex.cs:216
Vertex.cs:217
Vertex.cs:218
Vertex.cs:219
Vertex.cs:220
Vertex.cs:221
Vertex.cs:222
Vertex.cs:223
Vertex.cs:224
Vertex.cs:225
Vertex.cs:226
Vertex.cs:227
Vertex.cs:228
Vertex.cs:229
Vertex.cs:230
Vertex.cs:233
Vertex.cs:254
Vertex.cs:255
Vertex.cs:256
Vertex.cs:257
Vertex.cs:258
Vertex.cs:259
Vertex.cs:260
Vertex.cs:261
Vertex.cs:262
Vertex.cs:263
Vertex.cs:264
Vertex.cs:270
Vertex.cs:276
Vertex.cs:278
Vertex.cs:279
Vertex.cs:280
Vertex.cs:281
Vertex.cs:282
Vertex.cs:295
Vertex.cs:297
Vertex.cs:299
Vertex.cs:300
Vertex.cs:305
Vertex.cs:306
Voronoi.cs:42
Voronoi.cs:44
Voronoi.cs:50
Voronoi.cs:51
Voronoi.cs:52
Voronoi.cs:59
Voronoi.cs:77
Voronoi.cs:85
Voronoi.cs:87
Voronoi.cs:90
Voronoi.cs:92
Voronoi.cs:94
Voronoi.cs:96
Voronoi.cs:98
---------------------
