Iteration,Lines Deleted,Compilations,Executions,Cachced Compilations,Cached Executions,Elapsed Time (hh:mm:ss:ms)
0,56,0,0,0,0,00:00:00:001
1,456,1194,242,276,337,00:02:13:248
2,26,545,28,19,20,00:00:47:271
3,4,488,17,4,5,00:00:40:478
4,0,386,15,98,99,00:00:31:611
Total:,542,2613,302,397,461,00:04:12:609

