Health.cs:14
Health.cs:19
Health.cs:23
Health.cs:27
Health.cs:31
Health.cs:35
Health.cs:42
Health.cs:44
Health.cs:46
Health.cs:47
Health.cs:48
Health.cs:50
Health.cs:53
Health.cs:54
Health.cs:56
Health.cs:58
Health.cs:61
Health.cs:63
Health.cs:65
Health.cs:71
Health.cs:78
Health.cs:79
Health.cs:80
Health.cs:84
Health.cs:86
Health.cs:87
Health.cs:88
Health.cs:90
Health.cs:93
Health.cs:95
Health.cs:96
Health.cs:100
Health.cs:102
Health.cs:103
Health.cs:107
Health.cs:109
Health.cs:110
Health.cs:127
Hospital.cs:7
Hospital.cs:9
Hospital.cs:10
Hospital.cs:11
Hospital.cs:12
Hospital.cs:13
Hospital.cs:14
Hospital.cs:15
Hospital.cs:17
Hospital.cs:19
Hospital.cs:20
Hospital.cs:21
Hospital.cs:22
Hospital.cs:23
Hospital.cs:24
Hospital.cs:25
Hospital.cs:33
Hospital.cs:35
Hospital.cs:36
Hospital.cs:37
Hospital.cs:39
Hospital.cs:40
Hospital.cs:41
Hospital.cs:42
Hospital.cs:45
Hospital.cs:54
Hospital.cs:56
Hospital.cs:57
Hospital.cs:59
Hospital.cs:60
Hospital.cs:61
Hospital.cs:63
Hospital.cs:64
Hospital.cs:65
Hospital.cs:67
Hospital.cs:75
Hospital.cs:77
Hospital.cs:78
Hospital.cs:79
Hospital.cs:81
Hospital.cs:82
Hospital.cs:83
Hospital.cs:85
Hospital.cs:87
Hospital.cs:88
Hospital.cs:89
Hospital.cs:90
Hospital.cs:94
Hospital.cs:95
Hospital.cs:96
Hospital.cs:99
Hospital.cs:101
Hospital.cs:104
Hospital.cs:106
Hospital.cs:107
Hospital.cs:109
Hospital.cs:110
Hospital.cs:112
Hospital.cs:113
Hospital.cs:114
Hospital.cs:115
Hospital.cs:116
Hospital.cs:120
Hospital.cs:122
List.cs:7
List.cs:9
List.cs:10
List.cs:12
List.cs:14
List.cs:15
List.cs:18
List.cs:20
List.cs:21
List.cs:22
List.cs:24
List.cs:26
List.cs:29
List.cs:31
List.cs:34
List.cs:35
List.cs:37
List.cs:39
List.cs:40
ListNode.cs:4
ListNode.cs:6
ListNode.cs:7
ListNode.cs:9
ListNode.cs:11
ListNode.cs:12
Patient.cs:5
Patient.cs:7
Patient.cs:8
Patient.cs:9
Patient.cs:10
Patient.cs:16
Patient.cs:18
Patient.cs:19
Patient.cs:20
Patient.cs:21
Results.cs:4
Results.cs:6
Results.cs:7
Results.cs:8
Village.cs:8
Village.cs:10
Village.cs:11
Village.cs:12
Village.cs:13
Village.cs:14
Village.cs:15
Village.cs:17
Village.cs:18
Village.cs:19
Village.cs:20
Village.cs:21
Village.cs:22
Village.cs:31
Village.cs:33
Village.cs:34
Village.cs:35
Village.cs:36
Village.cs:37
Village.cs:38
Village.cs:48
Village.cs:50
Village.cs:58
Village.cs:60
Village.cs:61
Village.cs:62
Village.cs:76
Village.cs:78
Village.cs:79
Village.cs:82
Village.cs:83
Village.cs:85
Village.cs:86
Village.cs:88
Village.cs:96
Village.cs:99
Village.cs:101
Village.cs:103
Village.cs:104
Village.cs:105
Village.cs:108
Village.cs:110
Village.cs:111
Village.cs:113
Village.cs:114
Village.cs:116
Village.cs:117
Village.cs:118
Village.cs:123
Village.cs:124
Village.cs:125
Village.cs:128
Village.cs:129
Village.cs:130
Village.cs:132
Village.cs:139
Village.cs:141
Village.cs:142
Village.cs:144
Village.cs:145
Village.cs:146
Village.cs:149
Village.cs:150
Village.cs:152
Village.cs:154
Village.cs:155
Village.cs:156
Village.cs:160
Village.cs:161
Village.cs:163
Village.cs:164
Village.cs:165
Village.cs:166
Village.cs:167
Village.cs:170
Village.cs:177
Village.cs:179
Village.cs:180
Village.cs:181
Village.cs:182
Village.cs:183
Village.cs:184
Village.cs:195
Village.cs:197
Village.cs:198
Village.cs:199
Village.cs:200
Village.cs:201
Village.cs:202
Village.cs:203
Village.cs:204
