Branch.cs:10
Branch.cs:15
Branch.cs:16
Branch.cs:17
Branch.cs:18
Branch.cs:19
Branch.cs:23
Branch.cs:27
Branch.cs:37
Branch.cs:39
Branch.cs:41
Branch.cs:42
Branch.cs:44
Branch.cs:47
Branch.cs:48
Branch.cs:49
Branch.cs:60
Branch.cs:62
Branch.cs:63
Branch.cs:65
Branch.cs:66
Branch.cs:67
Branch.cs:70
Branch.cs:71
Branch.cs:72
Branch.cs:74
Branch.cs:75
Branch.cs:78
Branch.cs:79
Branch.cs:80
Branch.cs:81
Branch.cs:82
Branch.cs:83
Branch.cs:84
Branch.cs:86
Branch.cs:87
Branch.cs:88
Branch.cs:89
Branch.cs:91
Demand.cs:5
Demand.cs:10
Demand.cs:14
Demand.cs:16
Demand.cs:17
Demand.cs:18
Demand.cs:26
Demand.cs:28
Demand.cs:29
Demand.cs:35
Demand.cs:37
Demand.cs:38
Demand.cs:45
Demand.cs:47
Demand.cs:48
Demand.cs:54
Demand.cs:56
Demand.cs:57
Demand.cs:65
Demand.cs:67
Demand.cs:68
Demand.cs:75
Demand.cs:77
Demand.cs:78
Demand.cs:89
Demand.cs:91
Demand.cs:92
Demand.cs:93
Demand.cs:94
Demand.cs:96
Demand.cs:97
Demand.cs:98
Demand.cs:99
Demand.cs:101
Demand.cs:104
Demand.cs:105
Demand.cs:107
Demand.cs:108
Demand.cs:109
Demand.cs:110
Demand.cs:114
Demand.cs:115
Demand.cs:117
Demand.cs:118
Demand.cs:119
Demand.cs:120
Demand.cs:121
Demand.cs:122
Demand.cs:126
Demand.cs:127
Demand.cs:128
Demand.cs:129
Demand.cs:130
Demand.cs:131
Demand.cs:132
Demand.cs:133
Demand.cs:134
Demand.cs:135
Demand.cs:136
Demand.cs:137
Demand.cs:138
Demand.cs:140
Demand.cs:141
Demand.cs:142
Demand.cs:144
Demand.cs:145
Demand.cs:147
Demand.cs:148
Demand.cs:149
Demand.cs:150
Demand.cs:154
Demand.cs:156
Demand.cs:159
Demand.cs:161
Demand.cs:164
Demand.cs:166
Demand.cs:167
Demand.cs:169
Demand.cs:170
Demand.cs:171
Demand.cs:173
Demand.cs:175
Demand.cs:176
Demand.cs:178
Demand.cs:181
Demand.cs:183
Demand.cs:184
Demand.cs:185
Demand.cs:186
Demand.cs:187
Demand.cs:189
Demand.cs:191
Demand.cs:192
Demand.cs:194
Demand.cs:197
Demand.cs:199
Demand.cs:200
Demand.cs:201
Demand.cs:202
Demand.cs:203
Demand.cs:204
Demand.cs:205
Demand.cs:206
Demand.cs:208
Demand.cs:211
Demand.cs:213
Demand.cs:214
Demand.cs:215
Demand.cs:216
Demand.cs:218
Demand.cs:220
Demand.cs:221
Demand.cs:224
Demand.cs:226
Demand.cs:227
Demand.cs:228
Demand.cs:230
Demand.cs:231
Demand.cs:233
Demand.cs:234
Demand.cs:236
Demand.cs:238
Demand.cs:239
Demand.cs:241
Demand.cs:244
Lateral.cs:10
Lateral.cs:15
Lateral.cs:16
Lateral.cs:17
Lateral.cs:18
Lateral.cs:19
Lateral.cs:23
Lateral.cs:27
Lateral.cs:35
Lateral.cs:37
Lateral.cs:40
Lateral.cs:41
Lateral.cs:43
Lateral.cs:46
Lateral.cs:57
Lateral.cs:60
Lateral.cs:61
Lateral.cs:63
Lateral.cs:64
Lateral.cs:65
Lateral.cs:67
Lateral.cs:69
Lateral.cs:71
Lateral.cs:72
Lateral.cs:74
Lateral.cs:77
Lateral.cs:78
Lateral.cs:79
Lateral.cs:80
Lateral.cs:81
Lateral.cs:82
Lateral.cs:83
Lateral.cs:86
Lateral.cs:87
Lateral.cs:88
Lateral.cs:89
Lateral.cs:91
Leaf.cs:7
Leaf.cs:12
Leaf.cs:16
Leaf.cs:20
Leaf.cs:22
Leaf.cs:24
Leaf.cs:31
Leaf.cs:33
Leaf.cs:35
Leaf.cs:40
Power.cs:25
Power.cs:30
Power.cs:34
Power.cs:40
Power.cs:43
Power.cs:46
Power.cs:47
Power.cs:48
Power.cs:50
Power.cs:51
Power.cs:52
Power.cs:54
Power.cs:56
Power.cs:57
Power.cs:60
Power.cs:63
Power.cs:66
Power.cs:68
Power.cs:74
Power.cs:75
Power.cs:76
Power.cs:77
Power.cs:85
Power.cs:87
Power.cs:88
Power.cs:90
Root.cs:5
Root.cs:10
Root.cs:14
Root.cs:18
Root.cs:22
Root.cs:26
Root.cs:30
Root.cs:34
Root.cs:39
Root.cs:44
Root.cs:59
Root.cs:60
Root.cs:61
Root.cs:66
Root.cs:81
Root.cs:82
Root.cs:83
Root.cs:97
Root.cs:99
Root.cs:100
Root.cs:102
Root.cs:103
Root.cs:105
Root.cs:113
Root.cs:115
Root.cs:121
Root.cs:123
Root.cs:124
Root.cs:125
Root.cs:127
Root.cs:134
Root.cs:136
Root.cs:137
Root.cs:138
Root.cs:139
Root.cs:140
Root.cs:141
Root.cs:148
Root.cs:150
Root.cs:151
Root.cs:152
Root.cs:154
Root.cs:157
Root.cs:159
Root.cs:160
Root.cs:161
Root.cs:163
Root.cs:165
Root.cs:167
Root.cs:170
Root.cs:171
Root.cs:172
Root.cs:173
Root.cs:174
Root.cs:175
