BH|-b 26 -s 2|64745|383|63|3,6403631|1,0779928|8,8587661|3490|131760|115437|47
BH|-b 26 -s 2|64746|384|326|3,6403631|1,0779928|8,8743993|3490|131761|115437|47
BH|-b 26 -s 2|64747|385|64|3,6403631|1,0779928|8,890013|3490|131762|115437|47
BH|-b 26 -s 2|64748|386|326|3,6403631|1,0779928|8,890013|3490|131763|115437|47
BH|-b 26 -s 2|64749|387|62|3,6403631|1,0779928|8,890013|3490|131764|115437|47
BH|-b 26 -s 2|64750|388|326|3,6403631|1,0779928|8,890013|3490|131765|115437|47
