Window,Lines Deleted,Compilations,Executions,Cachced Compilations,Cached Executions,Re-run Fail(1),Re-run Fail(2),Re-run Fail(3),Re-run Fail(4)
1,30,993,126,253,291,0,0,0,0
2,12,991,90,243,267,0,0,0,0
3,51,995,53,238,277,0,0,0,0
4,92,1013,57,222,254,0,0,0,0
5,80,1027,45,198,211,0,0,0,0
6,18,1032,36,181,187,0,0,0,0
7,35,1027,35,173,181,0,0,0,0
8,88,1047,34,141,145,0,0,0,0
Total:,406,8125,476,1649,1813,0,0,0,0

