Iteration,Lines Deleted,Compilations,Executions,Cachced Compilations,Cached Executions,Elapsed Time (hh:mm:ss:ms)
0,130,0,0,0,0,00:00:00:001
1,490,4299,516,561,761,00:08:03:136
2,3,3743,0,5,8,00:03:07:131
3,0,0,0,3740,3740,00:00:00:564
Total:,623,8042,516,4306,4509,00:11:10:832

